
; ModuleID = 'c/test1.c'
source_filename = "c/test1.c"
target datalayout = "e-m:o-i64:64-f80:128-n8:16:32:64-S128"
target triple = "x86_64-apple-macosx10.12.0"

; Function Attrs: nounwind ssp uwtable
define i32 @addFive(i32) #0 {
  %2 = alloca i32, align 4
  store i32 %0, i32* %2, align 4
  %3 = load i32, i32* %2, align 4
  %4 = add nsw i32 %3, 5
  ret i32 %4
}

; Function Attrs: nounwind ssp uwtable
define i32 @main() #0 {
  %1 = alloca i32, align 4
  %2 = alloca i32, align 4
  store i32 0, i32* %1, align 4
  store i32 5, i32* %2, align 4
  %3 = load i32, i32* %2, align 4
  %4 = call i32 @addFive(i32 %3)
  store i32 %4, i32* %2, align 4
  ret i32 0
}

attributes #0 = { nounwind ssp uwtable "disable-tail-calls"="false" "less-precise-fpmad"="false" "no-frame-pointer-elim"="true" "no-frame-pointer-elim-non-leaf" "no-infs-fp-math"="false" "no-jump-tables"="false" "no-nans-fp-math"="false" "no-signed-zeros-fp-math"="false" "stack-protector-buffer-size"="8" "target-cpu"="core2" "target-features"="+cx16,+fxsr,+mmx,+sse,+sse2,+sse3,+ssse3,+x87" "unsafe-fp-math"="false" "use-soft-float"="false" }

!llvm.module.flags = !{!0}
!llvm.ident = !{!1}

!0 = !{i32 1, !"PIC Level", i32 2}
!1 = !{!"clang version 3.9.0 (tags/RELEASE_390/final)"}
